[
  {
    "id": 1,
    "name": "twitter_consumer_key",
    "key": ""
  },
  {
    "id": 2,
    "name": "twitter_consumer_secret",
    "key": ""
  },
  {
    "id": 3,
    "name": "twitter_access_token",
    "key": ""
  },
  {
    "id": 4,
    "name": "twitter_access_token_secret",
    "key": ""
  },
  {
    "id": 4,
    "name": "fullcontact_api",
    "key": ""
  },
  {
    "id": 5,
    "name": "linkedin_user",
    "key": ""
  },
  {
    "id": 6,
    "name": "linkedin_pass",
    "key": ""
  }
]
